Manage functionality as a package
…
Warning: 6 parsing failures.
  row      col           expected            actual                                                                                                    file
10746 mean     1/0/T/F/TRUE/FALSE 80                '/Users/Anna/Documents/workflows/workshops/rrtools-repro-research/analysis/data/raw_data/gillespie.csv'
10746 plus_sd  1/0/T/F/TRUE/FALSE 84.47213595499957 '/Users/Anna/Documents/workflows/workshops/rrtools-repro-research/analysis/data/raw_data/gillespie.csv'
10746 minus_sd 1/0/T/F/TRUE/FALSE 75.52786404500043 '/Users/Anna/Documents/workflows/workshops/rrtools-repro-research/analysis/data/raw_data/gillespie.csv'
10747 mean     1/0/T/F/TRUE/FALSE 800               '/Users/Anna/Documents/workflows/workshops/rrtools-repro-research/analysis/data/raw_data/gillespie.csv'
10747 plus_sd  1/0/T/F/TRUE/FALSE 814.142135623731  '/Users/Anna/Documents/workflows/workshops/rrtools-repro-research/analysis/data/raw_data/gillespie.csv'
..... ........ .................. ................. .......................................................................................................
See problems(...) for more details.

data

# A tibble: 10,747 x 6
   system_size     time     n mean  plus_sd minus_sd
   <chr>          <dbl> <dbl> <lgl> <lgl>   <lgl>   
 1 large       0          500 NA    NA      NA      
 2 large       0.000359   501 NA    NA      NA      
 3 large       0.00680    502 NA    NA      NA      
 4 large       0.00818    503 NA    NA      NA      
 5 large       0.0199     504 NA    NA      NA      
 6 large       0.0207     505 NA    NA      NA      
 7 large       0.0222     504 NA    NA      NA      
 8 large       0.0242     505 NA    NA      NA      
 9 large       0.0258     506 NA    NA      NA      
10 large       0.0264     507 NA    NA      NA      
# … with 10,737 more rows

recode_system_size(data)

# A tibble: 10,747 x 6
   system_size             time     n mean  plus_sd minus_sd
   <chr>                  <dbl> <dbl> <lgl> <lgl>   <lgl>   
 1 A. 1000 total sites 0          500 NA    NA      NA      
 2 A. 1000 total sites 0.000359   501 NA    NA      NA      
 3 A. 1000 total sites 0.00680    502 NA    NA      NA      
 4 A. 1000 total sites 0.00818    503 NA    NA      NA      
 5 A. 1000 total sites 0.0199     504 NA    NA      NA      
 6 A. 1000 total sites 0.0207     505 NA    NA      NA      
 7 A. 1000 total sites 0.0222     504 NA    NA      NA      
 8 A. 1000 total sites 0.0242     505 NA    NA      NA      
 9 A. 1000 total sites 0.0258     506 NA    NA      NA      
10 A. 1000 total sites 0.0264     507 NA    NA      NA      
# … with 10,737 more rows
…
